{
  "config": {
    "ric": [
      {
        "name": "ta1",
        "url": "http://a1mediator-http-service.ta1.svc.cluster.local:8002/"
      },
      {
        "name": "ta2",
        "url": "http://a1mediator-http-service.ta2.svc.cluster.local:8002/"
      },
      {
        "name": "ta3",
        "url": "http://a1mediator-http-service.ta3.svc.cluster.local:8002/"
      }
    ]
  }
}